{
  "description": "A test area for the Coordinate Response Measures (CRM).The test has two competing talkers saying the phrase “Ready [call sign] go to [color] [number] now”.  The subject has to listen for their [call sign] and click on the right [color] [number] button",
  "allOf": [
    {"$ref": "/response-areas/definitions/commonResponseAreaProperties.json"},
    {
      "properties": {
        "type": {
          "enum": [ "crmResponseArea" ]
        },
        "correct": {
          "type": "string",
          "description": "Color number"
        },
        "verticalSpacing": {
          "type": "integer",
          "description": "Vertical spacing between buttons, given in [px]"
        },
        "horizontalSpacing": {
          "type": "integer",
          "description": "Horizontal spacing between buttons, given in [px]"
        }
      }
    }
  ]
}