{
  "description": "CHA - Run Many Audiometry Exams From One Protocol Page.",
  "properties": {
    "type": {
      "enum": [ "chaAudiometryList"]
    },
    "examInstructions": {
      "type": "string",
      "description": "Replaces the top-level instruction text on the CHA exam pages (each page after starting page)"
    },
    "audiometryType":{
      "enum": ["HughsonWestlake"],
      "description": "Type of audiometry exam to run",
      "default": "HughsonWestlake"
    },
    "repeatGroup": {
      "type": "boolean",
      "description": "If any tests in a group fail to converge the first time, at the end of the group ask the listener to focus and repeat only the failed tests."
    },
    "notesOnGroupFailedTwice": {
      "type": "boolean",
      "description": "If any tests fail the second time, show 'Please hand tablet to test administrator' at the end of the group, then get notes and continue."
    },
    "randomizeList": {
      "type": "boolean",
      "description": "if true, the response area will shuffle the presentation list into a random order.",
      "default": false
    },
    "presentationList": {
      "type": "array",
      "description": "Array of audiometry exams to run.  Any properties in here will replace commonExamProperties.",
      "items": {
        "allOf": [
          { "$ref": "/cha/definitions/audiometryLevelProperties.json"},
          {
            "properties": {
              "id": {
                "type": "string",
                "description": "Custom presentationId to use for each frequency.  Optional - if not provided, parent id + Frequency will be used",
                "default": "[parent id] + [frequency]"
              }
            }
          }
        ]
      }
    },
    "commonExamProperties": {
      "anyOf": [
        {"$ref":"/cha/definitions/hughsonWestlakeExamProperties.json"},
        {"$ref":"/cha/definitions/bekesyLikeExamProperties.json"},
        {"$ref":"/cha/definitions/bekesyMLDExamProperties.json"}
      ]
    },
    "commonResponseAreaProperties": { "$ref":"/cha/definitions/audiometryPageProperties.json" },
    "measureBackground": {
      "type": "string",
      "description": "Select a method from the list below to measure background noise after an audiometry exam",
      "enum": ["ThirdOctaveBands"]
    }
  }
}
