{
  "description": "CHA - common properties for audiometry plots",
  "properties":{
    "displayAudiogram": {
      "description": "An array of strings, to be used in matching page ids, to select which results are plotted.  i.e. ['training'] or ['section1_left', 'section1_right']",
      "type": "array",
      "items": {
        "type": "string"
      }
    },
    "displayLevelProgression":{
      "description": "Use to turn on plotting of the level progression for an individual exam",
      "type": "boolean",
      "default": false
    }
  }
}
